sim/Fifo.vcd
$date
	Wed Jan 20 22:25:08 2021
$end
$version
	Icarus Verilog
$end
$timescale
	1s
$end
$scope module fifo_tb $end
$var wire 1 ! ready $end
$var wire 1 " idle $end
$var wire 8 # fifo3_data_o [7:0] $end
$var wire 8 $ fifo2_data_o [7:0] $end
$var wire 8 % fifo1_data_o [7:0] $end
$var wire 1 & done $end
$var reg 1 ' clk $end
$var reg 8 ( data_i [7:0] $end
$var reg 1 ) data_valid $end
$var reg 8 * i [7:0] $end
$scope module myFifo $end
$var wire 1 ' clk $end
$var wire 8 + data_i [7:0] $end
$var wire 1 ) data_valid $end
$var reg 8 , COL_COUNT [7:0] $end
$var reg 8 - HSYNC [7:0] $end
$var reg 1 . MODE $end
$var reg 1 / WINDOW_FLAG $end
$var reg 8 0 W_COUNT [7:0] $end
$var reg 1 & done $end
$var reg 8 1 fifo1_data_o [7:0] $end
$var reg 8 2 fifo2_data_o [7:0] $end
$var reg 8 3 fifo3_data_o [7:0] $end
$var reg 1 " idle $end
$var reg 1 ! ready $end
$upscope $end
$upscope $end
$enddefinitions $end
#15
$dumpvars
b0 3
b0 2
b0 1
b0 0
0/
0.
b10 -
b1 ,
b0 +
b1 *
1)
b0 (
1'
0&
b0 %
b0 $
b0 #
1"
0!
$end
#20
0'
#25
b10 ,
1'
b10 *
b1 (
b1 +
#30
0'
#35
b11 ,
1'
b11 *
b10 (
b10 +
#40
0'
#45
b100 ,
1'
b100 *
b11 (
b11 +
#50
0'
#55
b101 ,
1'
b101 *
b100 (
b100 +
#60
0'
#65
b110 ,
1'
b110 *
b101 (
b101 +
#70
0'
#75
b111 ,
1'
b111 *
b110 (
b110 +
#80
0'
#85
b1000 ,
1'
b1000 *
b111 (
b111 +
#90
0'
#95
b1001 ,
1'
b1001 *
b1000 (
b1000 +
#100
0'
#105
b1010 ,
1'
b1010 *
b1001 (
b1001 +
#110
0'
#115
b1011 ,
1'
b1011 *
b1010 (
b1010 +
#120
0'
#125
b1100 ,
1'
b1100 *
b1011 (
b1011 +
#130
0'
#135
b1101 ,
1'
b1101 *
b1100 (
b1100 +
#140
0'
#145
b1110 ,
1'
b1110 *
b1101 (
b1101 +
#150
0'
#155
0"
1.
1/
b0 ,
1'
b1111 *
b1110 (
b1110 +
#160
0'
#165
b1010 #
b1010 3
b101 $
b101 2
1!
b1 0
1'
0)
#170
0'
#175
b1011 #
b1011 3
b110 $
b110 2
b1 %
b1 1
b10 0
1'
#180
0'
#185
b1100 #
b1100 3
b111 $
b111 2
b10 %
b10 1
b11 0
1'
#190
0'
#195
b1101 #
b1101 3
b1000 $
b1000 2
b11 %
b11 1
b100 0
1'
#200
0'
#205
0!
1"
b1110 #
b1110 3
b1001 $
b1001 2
b100 %
b100 1
b11 -
0.
b0 0
1'
#210
0'
#215
b1 ,
1'
b10000 *
b1111 (
b1111 +
1)
#220
0'
#225
b10 ,
1'
b10001 *
b10000 (
b10000 +
#230
0'
#235
b11 ,
1'
b10010 *
b10001 (
b10001 +
#240
0'
#245
b100 ,
1'
b10011 *
b10010 (
b10010 +
#250
0'
#255
0"
1.
b0 ,
1'
b10100 *
b10011 (
b10011 +
#260
0'
#265
b1111 #
b1111 3
b1010 $
b1010 2
b101 %
b101 1
1!
b1 0
1'
0)
#270
0'
#275
b10000 #
b10000 3
b1011 $
b1011 2
b110 %
b110 1
b10 0
1'
#280
0'
#285
b10001 #
b10001 3
b1100 $
b1100 2
b111 %
b111 1
b11 0
1'
#290
0'
#295
b10010 #
b10010 3
b1101 $
b1101 2
b1000 %
b1000 1
b100 0
1'
#300
0'
#305
0!
1"
b10011 #
b10011 3
b1110 $
b1110 2
b1001 %
b1001 1
b100 -
0.
b0 0
1'
#310
0'
#315
b1 ,
1'
b10101 *
b10100 (
b10100 +
1)
#320
0'
#325
b10 ,
1'
b10110 *
b10101 (
b10101 +
#330
0'
#335
b11 ,
1'
b10111 *
b10110 (
b10110 +
#340
0'
#345
b100 ,
1'
b11000 *
b10111 (
b10111 +
#350
0'
#355
0"
1.
b0 ,
1'
b11001 *
b11000 (
b11000 +
#360
0'
#365
b10100 #
b10100 3
b1111 $
b1111 2
b1010 %
b1010 1
1!
b1 0
1'
0)
#370
0'
#375
b10101 #
b10101 3
b10000 $
b10000 2
b1011 %
b1011 1
b10 0
1'
#380
0'
#385
b10110 #
b10110 3
b10001 $
b10001 2
b1100 %
b1100 1
b11 0
1'
#390
0'
#395
b10111 #
b10111 3
b10010 $
b10010 2
b1101 %
b1101 1
b100 0
1'
#400
0'
#405
1&
0!
1"
b11000 #
b11000 3
b10011 $
b10011 2
b1110 %
b1110 1
b101 -
0.
b0 0
1'
#410
0'
#415
b1 ,
1'
b11010 *
b0 (
b0 +
1)
